…
    ## [1] 0.8363911

    ## [1] 0.6390777

    ## [1] 1

We calculate the percent of total homes liened and sold in different
neighborhoods, and write out the data for a Datawrapper chart. This
requires joining CSAs from the BNIA with the shapefiles of properties
and liened properties to calculate liened property percent per
neighborhood. This is, as far as I can tell, the first calculation of
liened buildings in Baltimore that uses the number of buildings as the
denominator.

    ## # A tibble: 56 × 4
    ##    Community                       n_homes n_homes_liened perc_liened
    ##    <chr>                             <int>          <int>       <dbl>
    ##  1 Southwest Baltimore                9541           4366        45.8
    ##  2 Sandtown-Winchester/Harlem Park    7561           3190        42.2
    ##  3 Clifton-Berea                      5349           2117        39.6
    ##  4 Midway/Coldstream                  4634           1648        35.6
    ##  5 Greater Rosemont                   7887           2706        34.3
    ##  6 Greenmount East                    5560           1851        33.3
    ##  7 Madison/East End                   3606           1128        31.3
    ##  8 Penn North/Reservoir Hill          3426           1006        29.4
    ##  9 Greater Mondawmin                  3620           1061        29.3
    ## 10 Southern Park Heights              4802           1351        28.1
    ## # … with 46 more rows
    ## # ℹ Use `print(n = ...)` to see more rows

    ## # A tibble: 56 × 4
    ##    Community                       n_homes n_homes_liened perc_liened
    ##    <chr>                             <int>          <int>       <dbl>
    ##  1 Southwest Baltimore                9541            265        2.78
    ##  2 Sandtown-Winchester/Harlem Park    7561            166        2.20
    ##  3 Clifton-Berea                      5349            111        2.08
    ##  4 Pimlico/Arlington/Hilltop          4382             90        2.05
    ##  5 Midway/Coldstream                  4634             95        2.05
    ##  6 Greater Rosemont                   7887            160        2.03
    ##  7 Southern Park Heights              4802             94        1.96
    ##  8 Madison/East End                   3606             65        1.80
    ##  9 Upton/Druid Heights                3397             51        1.50
    ## 10 Greenmount East                    5560             81        1.46
    ## # … with 46 more rows
    ## # ℹ Use `print(n = ...)` to see more rows
…
