…
liened_properties_match_f_2  %>%
  mutate(assess_date = str_c("010", date_assessed) %>% dmy()) %>% 
  filter(assess_date>sale_date) %>%
  group_by(final_names, VACIND) %>% 
  summarise(n = n()) %>% 
  pivot_wider(names_from = VACIND, values_from = n) %>% 
  mutate(N=replace_na(N, 0),
         none = replace_na(`NA`, 0),
         Y = replace_na(Y, 0),
         vac_perc = Y/(Y+N)) %>% 
  arrange(desc(vac_perc)) %>% 
  filter(N+Y+none>100) 
```

    ## # A tibble: 28 × 6
    ## # Groups:   final_names [28]
    ##    final_names                                       N  `NA`     Y  none vac_p…¹
    ##    <chr>                                         <int> <int> <int> <int>   <dbl>
    ##  1 acf development llc|tark development llc|tjc…    74   507   514   507   0.874
    ##  2 valens llc|arx i llc|totum ltd|velox ltd|tem…    86   591   484   591   0.849
    ##  3 hobart holdings llc|ashman investments llc|c…    73   548   360   548   0.831
    ##  4 tlmd capital llc                                 52   517   167   517   0.763
    ##  5 interstate holdings llc|mtsif llc|palomino h…   155  1489   482  1489   0.757
    ##  6 immocap|immobilier cap ks ltd                    24   159    71   159   0.747
    ##  7 palm tsf llc|maple tsf llc                      117  1175   285  1175   0.709
    ##  8 hickory tsf llc                                  88   551   162   551   0.648
    ##  9 ultra-safe fund llc|mac  llc|land research a…   169  1751   292  1751   0.633
    ## 10 mayor and city council of baltimore            5097  4182  8297  4182   0.619
    ## # … with 18 more rows, and abbreviated variable name ¹​vac_perc
    ## # ℹ Use `print(n = ...)` to see more rows
…
